%YAML 1.1
%TAG !u! tag:unity3d.com,2011:
--- !u!74 &7400000
AnimationClip:
  m_ObjectHideFlags: 0
  m_PrefabParentObject: {fileID: 0}
  m_PrefabInternal: {fileID: 0}
  m_Name: Waterfall
  serializedVersion: 4
  m_AnimationType: 2
  m_Compressed: 0
  m_UseHighQualityCurve: 1
  m_RotationCurves: []
  m_CompressedRotationCurves: []
  m_PositionCurves:
  - curve:
      serializedVersion: 2
      m_Curve:
      - time: .0088888891
        value: {x: 1.59000003, y: -3.69000006, z: 0}
        inSlope: {x: 0, y: -41.6009102, z: 0}
        outSlope: {x: 0, y: -41.6009102, z: 0}
        tangentMode: 0
      - time: .0244444441
        value: {x: 1.59000003, y: -4.3371253, z: 0}
        inSlope: {x: 0, y: -42.9351273, z: 0}
        outSlope: {x: 0, y: -42.9351273, z: 0}
        tangentMode: 57
      - time: .129999995
        value: {x: 1.59000003, y: -9.01000023, z: 0}
        inSlope: {x: 0, y: -44.2693443, z: 0}
        outSlope: {x: 0, y: -44.2693443, z: 0}
        tangentMode: 103553480
      m_PreInfinity: 2
      m_PostInfinity: 2
    path: 
  m_ScaleCurves: []
  m_FloatCurves: []
  m_PPtrCurves:
  - curve:
    - time: .0244444441
      value: {fileID: 21300004, guid: ec40b190f19694f42a2b35eb8b8e3993, type: 3}
    - time: .088888891
      value: {fileID: 21300006, guid: ec40b190f19694f42a2b35eb8b8e3993, type: 3}
    attribute: m_Sprite
    path: 
    classID: 212
    script: {fileID: 0}
  m_SampleRate: 900
  m_WrapMode: 0
  m_Bounds:
    m_Center: {x: 0, y: 0, z: 0}
    m_Extent: {x: 0, y: 0, z: 0}
  m_ClipBindingConstant:
    genericBindings:
    - path: 0
      attribute: 1
      script: {fileID: 0}
      classID: 4
      customType: 0
      isPPtrCurve: 0
    - path: 0
      attribute: 0
      script: {fileID: 0}
      classID: 212
      customType: 23
      isPPtrCurve: 1
    pptrCurveMapping:
    - {fileID: 21300004, guid: ec40b190f19694f42a2b35eb8b8e3993, type: 3}
    - {fileID: 21300006, guid: ec40b190f19694f42a2b35eb8b8e3993, type: 3}
  m_AnimationClipSettings:
    serializedVersion: 2
    m_StartTime: 0
    m_StopTime: .129999995
    m_OrientationOffsetY: 0
    m_Level: 0
    m_CycleOffset: 0
    m_LoopTime: 1
    m_LoopBlend: 0
    m_LoopBlendOrientation: 0
    m_LoopBlendPositionY: 0
    m_LoopBlendPositionXZ: 0
    m_KeepOriginalOrientation: 0
    m_KeepOriginalPositionY: 1
    m_KeepOriginalPositionXZ: 0
    m_HeightFromFeet: 0
    m_Mirror: 0
  m_EditorCurves:
  - curve:
      serializedVersion: 2
      m_Curve:
      - time: .0088888891
        value: 1.59000003
        inSlope: 0
        outSlope: 0
        tangentMode: 10
      - time: .0244444441
        value: 1.59000003
        inSlope: 0
        outSlope: 0
        tangentMode: 10
      - time: .129999995
        value: 1.59000003
        inSlope: 0
        outSlope: 0
        tangentMode: 10
      m_PreInfinity: 2
      m_PostInfinity: 2
    attribute: m_LocalPosition.x
    path: 
    classID: 4
    script: {fileID: 0}
  - curve:
      serializedVersion: 2
      m_Curve:
      - time: .0088888891
        value: -3.69000006
        inSlope: -41.6009102
        outSlope: -41.6009102
        tangentMode: 10
      - time: .0244444441
        value: -4.3371253
        inSlope: -42.9351273
        outSlope: -42.9351273
        tangentMode: 10
      - time: .129999995
        value: -9.01000023
        inSlope: -44.2693443
        outSlope: -44.2693443
        tangentMode: 10
      m_PreInfinity: 2
      m_PostInfinity: 2
    attribute: m_LocalPosition.y
    path: 
    classID: 4
    script: {fileID: 0}
  - curve:
      serializedVersion: 2
      m_Curve:
      - time: .0088888891
        value: 0
        inSlope: 0
        outSlope: 0
        tangentMode: 10
      - time: .0244444441
        value: 0
        inSlope: 0
        outSlope: 0
        tangentMode: 10
      - time: .129999995
        value: 0
        inSlope: 0
        outSlope: 0
        tangentMode: 10
      m_PreInfinity: 2
      m_PostInfinity: 2
    attribute: m_LocalPosition.z
    path: 
    classID: 4
    script: {fileID: 0}
  m_EulerEditorCurves: []
  m_Events: []
